{
    "servers": {
        "bash": {
            "command": ["bash-language-server", "start"],
            "root": "",
            "url": "https://github.com/bash-lsp/bash-language-server",
            "highlightingModeRegex": "^Bash$"
        },
        "bibtex": {
            "use": "latex",
            "highlightingModeRegex": "^BibTeX$"
        },
        "c": {
            "command": ["clangd", "-log=error", "--background-index"],
            "commandDebug": ["clangd", "-log=verbose", "--background-index"],
            "url": "https://clang.llvm.org/extra/clangd/",
            "highlightingModeRegex": "^(C|ANSI C89|Objective-C)$"
        },
        "cpp": {
            "use": "c",
            "highlightingModeRegex": "^(C\\+\\+|ISO C\\+\\+|Objective-C\\+\\+)$"
        },
        "d": {
            "command": ["serve-d"],
            "rootIndicationFileNames": ["dub.json"],
            "url": "https://github.com/Pure-D/serve-d",
            "highlightingModeRegex": "^D$"
        },
        "dart": {
            "command": ["dart", "analysis_server.dart.snapshot", "--lsp"],
            "url": "https://github.com/dart-lang/sdk/blob/master/pkg/analysis_server/tool",
            "rootIndicationFileNames": ["pubspec.yaml"],
            "highlightingModeRegex": "^Dart$",
            "initializationOptions": {
                "onlyAnalyzeProjectsWithOpenFiles": true
            }
        },
        "fortran": {
            "command": ["fortls"],
            "rootIndicationFileNames": [".fortls"],
            "url": "https://github.com/hansec/fortran-language-server",
            "highlightingModeRegex": "^Fortran.*$"
        },
        "go": {
            "command": ["gopls"],
            "commandDebug": ["gopls", "-rpc.trace"],
            "rootIndicationFileNames": ["go.mod"],
            "url": "golang.org/x/tools/gopls",
            "highlightingModeRegex": "^Go$"
        },
        "haskell": {
            "command": ["haskell-language-server-wrapper", "--lsp"],
            "rootIndicationFileNames": ["*.cabal", "stack.yaml", "cabal.project", "package.yaml"],
            "url": "https://github.com/haskell/haskell-language-server",
            "highlightingModeRegex": "^Haskell$"
        },
        "javascript": {
            "command": ["typescript-language-server", "--stdio"],
            "rootIndicationFileNames": ["package.json", "package-lock.json"],
            "url": "https://github.com/theia-ide/typescript-language-server",
            "highlightingModeRegex": "^JavaScript.*$",
            "documentLanguageId": false
        },
        "latex": {
            "command": ["texlab"],
            "url": "https://texlab.netlify.com/",
            "highlightingModeRegex": "^LaTeX$"
        },
        "ocaml": {
            "command": ["ocamllsp"],
            "url": "https://github.com/ocaml/ocaml-lsp",
            "highlightingModeRegex": "^Objective Caml.*$"
        },
        "perl": {
            "command": ["perl", "-MPerl::LanguageServer", "-e", "Perl::LanguageServer::run", "--"],
            "commandDebug": ["perl", "-MPerl::LanguageServer", "-e", "Perl::LanguageServer::run", "--", "--debug"],
            "url": "https://github.com/richterger/Perl-LanguageServer",
            "highlightingModeRegex": "^Perl$"
        },
        "python": {
            "command": ["pylsp", "--check-parent-process"],
            "url": "https://github.com/python-lsp/python-lsp-server",
            "highlightingModeRegex": "^Python$"
        },
        "rust": {
            "command": ["rls"],
            "path": ["%{ENV:HOME}/.cargo/bin", "%{ENV:USERPROFILE}/.cargo/bin"],
            "rootIndicationFileNames": ["Cargo.lock", "Cargo.toml"],
            "url": "https://github.com/rust-lang/rls",
            "highlightingModeRegex": "^Rust$"
        },
        "typescript": {
            "use": "javascript",
            "highlightingModeRegex": "^TypeScript.*$",
            "documentLanguageId": false
        },
        "r": {
            "command": ["R", "--slave", "-e", "languageserver::run()"],
            "url": "https://github.com/REditorSupport/languageserver",
            "highlightingModeRegex": "^R Script$"
        },
        "vala": {
            "command": ["vala-language-server"],
            "url": "https://github.com/Prince781/vala-language-server",
            "highlightingModeRegex": "^Vala$"
        },
        "zig": {
            "command": ["zls"],
            "url": "https://github.com/zigtools/zls",
            "highlightingModeRegex": "^Zig$"
        }
    }
}
